Biostat 212A Homework 3
…
Lasso

…

Answer:

Explore the data:

library(ISLR2)
data("Boston")
library(tidymodels)
library(tidyverse)
boston <- as_tibble(Boston) %>% print(width = Inf)

# A tibble: 506 × 13
      crim    zn indus  chas   nox    rm   age   dis   rad   tax ptratio lstat
     <dbl> <dbl> <dbl> <int> <dbl> <dbl> <dbl> <dbl> <int> <dbl>   <dbl> <dbl>
 1 0.00632  18    2.31     0 0.538  6.58  65.2  4.09     1   296    15.3  4.98
 2 0.0273    0    7.07     0 0.469  6.42  78.9  4.97     2   242    17.8  9.14
 3 0.0273    0    7.07     0 0.469  7.18  61.1  4.97     2   242    17.8  4.03
 4 0.0324    0    2.18     0 0.458  7.00  45.8  6.06     3   222    18.7  2.94
 5 0.0690    0    2.18     0 0.458  7.15  54.2  6.06     3   222    18.7  5.33
 6 0.0298    0    2.18     0 0.458  6.43  58.7  6.06     3   222    18.7  5.21
 7 0.0883   12.5  7.87     0 0.524  6.01  66.6  5.56     5   311    15.2 12.4 
 8 0.145    12.5  7.87     0 0.524  6.17  96.1  5.95     5   311    15.2 19.2 
 9 0.211    12.5  7.87     0 0.524  5.63 100    6.08     5   311    15.2 29.9 
10 0.170    12.5  7.87     0 0.524  6.00  85.9  6.59     5   311    15.2 17.1 
    medv
   <dbl>
 1  24  
 2  21.6
 3  34.7
 4  33.4
 5  36.2
 6  28.7
 7  22.9
 8  27.1
 9  16.5
10  18.9
# ℹ 496 more rows
…
Main Arguments:
  penalty = tune()
  mixture = 1

Computational engine: glmnet 

Tuning grid:

lambda_grid <-
  grid_regular(penalty(range = c(-2, 3), trans = log10_trans()), levels = 100)
lambda_grid

# A tibble: 100 × 1
   penalty
     <dbl>
 1  0.01  
 2  0.0112
 3  0.0126
 4  0.0142
 5  0.0159
 6  0.0179
 7  0.0201
 8  0.0226
 9  0.0254
10  0.0285
# ℹ 90 more rows
…
[1] 5.693454

Ridge:

ridge_fit %>%
  collect_metrics() %>%
  print(width = Inf) %>%
  filter(.metric == "rmse") %>%
  ggplot(mapping = aes(x = penalty, y = mean)) +
  geom_point() +
  geom_line() +
  labs(x = "Penalty", y = "CV RMSE") +
  scale_x_log10(labels = scales::label_number())

# A tibble: 200 × 7
   penalty .metric .estimator  mean     n std_err .config               
     <dbl> <chr>   <chr>      <dbl> <int>   <dbl> <chr>                 
 1  0.01   rmse    standard   5.58     10  1.33   Preprocessor1_Model001
 2  0.01   rsq     standard   0.628    10  0.0510 Preprocessor1_Model001
 3  0.0112 rmse    standard   5.58     10  1.33   Preprocessor1_Model002
 4  0.0112 rsq     standard   0.628    10  0.0510 Preprocessor1_Model002
 5  0.0126 rmse    standard   5.58     10  1.33   Preprocessor1_Model003
 6  0.0126 rsq     standard   0.628    10  0.0510 Preprocessor1_Model003
 7  0.0142 rmse    standard   5.58     10  1.33   Preprocessor1_Model004
 8  0.0142 rsq     standard   0.628    10  0.0510 Preprocessor1_Model004
 9  0.0159 rmse    standard   5.58     10  1.33   Preprocessor1_Model005
10  0.0159 rsq     standard   0.628    10  0.0510 Preprocessor1_Model005
# ℹ 190 more rows
…
cv_rmse_ridge <- ridge_fit %>%
  collect_metrics() %>%
  print(width = Inf) %>%
  filter(.metric == "rmse") %>%
  pull(mean)

# A tibble: 200 × 7
   penalty .metric .estimator  mean     n std_err .config               
     <dbl> <chr>   <chr>      <dbl> <int>   <dbl> <chr>                 
 1  0.01   rmse    standard   5.58     10  1.33   Preprocessor1_Model001
 2  0.01   rsq     standard   0.628    10  0.0510 Preprocessor1_Model001
 3  0.0112 rmse    standard   5.58     10  1.33   Preprocessor1_Model002
 4  0.0112 rsq     standard   0.628    10  0.0510 Preprocessor1_Model002
 5  0.0126 rmse    standard   5.58     10  1.33   Preprocessor1_Model003
 6  0.0126 rsq     standard   0.628    10  0.0510 Preprocessor1_Model003
 7  0.0142 rmse    standard   5.58     10  1.33   Preprocessor1_Model004
 8  0.0142 rsq     standard   0.628    10  0.0510 Preprocessor1_Model004
 9  0.0159 rmse    standard   5.58     10  1.33   Preprocessor1_Model005
10  0.0159 rsq     standard   0.628    10  0.0510 Preprocessor1_Model005
# ℹ 190 more rows
…
Lasso:

lasso_fit %>%
  collect_metrics() %>%
  print(width = Inf) %>%
  filter(.metric == "rmse") %>%
  ggplot(mapping = aes(x = penalty, y = mean)) +
  geom_point() +
  geom_line() +
  labs(x = "Penalty", y = "CV RMSE") +
  scale_x_log10(labels = scales::label_number())

# A tibble: 200 × 7
   penalty .metric .estimator  mean     n std_err .config               
     <dbl> <chr>   <chr>      <dbl> <int>   <dbl> <chr>                 
 1  0.01   rmse    standard   5.68     10  1.28   Preprocessor1_Model001
 2  0.01   rsq     standard   0.620    10  0.0485 Preprocessor1_Model001
 3  0.0112 rmse    standard   5.68     10  1.28   Preprocessor1_Model002
 4  0.0112 rsq     standard   0.620    10  0.0485 Preprocessor1_Model002
 5  0.0126 rmse    standard   5.67     10  1.28   Preprocessor1_Model003
 6  0.0126 rsq     standard   0.621    10  0.0486 Preprocessor1_Model003
 7  0.0142 rmse    standard   5.67     10  1.28   Preprocessor1_Model004
 8  0.0142 rsq     standard   0.621    10  0.0487 Preprocessor1_Model004
 9  0.0159 rmse    standard   5.67     10  1.29   Preprocessor1_Model005
10  0.0159 rsq     standard   0.621    10  0.0488 Preprocessor1_Model005
# ℹ 190 more rows
…
cv_rmse_lasso <- lasso_fit %>%
  collect_metrics() %>%
  print(width = Inf) %>%
  filter(.metric == "rmse") %>%
  pull(mean)

# A tibble: 200 × 7
   penalty .metric .estimator  mean     n std_err .config               
     <dbl> <chr>   <chr>      <dbl> <int>   <dbl> <chr>                 
 1  0.01   rmse    standard   5.68     10  1.28   Preprocessor1_Model001
 2  0.01   rsq     standard   0.620    10  0.0485 Preprocessor1_Model001
 3  0.0112 rmse    standard   5.68     10  1.28   Preprocessor1_Model002
 4  0.0112 rsq     standard   0.620    10  0.0485 Preprocessor1_Model002
 5  0.0126 rmse    standard   5.67     10  1.28   Preprocessor1_Model003
 6  0.0126 rsq     standard   0.621    10  0.0486 Preprocessor1_Model003
 7  0.0142 rmse    standard   5.67     10  1.28   Preprocessor1_Model004
 8  0.0142 rsq     standard   0.621    10  0.0487 Preprocessor1_Model004
 9  0.0159 rmse    standard   5.67     10  1.29   Preprocessor1_Model005
10  0.0159 rsq     standard   0.621    10  0.0488 Preprocessor1_Model005
# ℹ 190 more rows
…
